rtype/simulation/qsim/rtype.msim.vcd
$comment
	File created using the following command:
		vcd file rtype.msim.vcd -direction
$end
$date
	Wed Apr 10 19:31:55 2019
$end
$version
	ModelSim Version 10.1d
$end
$timescale
	1ps
$end
$scope module rtype_vlg_vec_tst $end
$var reg 1 ! clock $end
$var wire 1 " addr [31] $end
$var wire 1 # addr [30] $end
$var wire 1 $ addr [29] $end
$var wire 1 % addr [28] $end
$var wire 1 & addr [27] $end
$var wire 1 ' addr [26] $end
$var wire 1 ( addr [25] $end
$var wire 1 ) addr [24] $end
$var wire 1 * addr [23] $end
$var wire 1 + addr [22] $end
$var wire 1 , addr [21] $end
$var wire 1 - addr [20] $end
$var wire 1 . addr [19] $end
$var wire 1 / addr [18] $end
$var wire 1 0 addr [17] $end
$var wire 1 1 addr [16] $end
$var wire 1 2 addr [15] $end
$var wire 1 3 addr [14] $end
$var wire 1 4 addr [13] $end
$var wire 1 5 addr [12] $end
$var wire 1 6 addr [11] $end
$var wire 1 7 addr [10] $end
$var wire 1 8 addr [9] $end
$var wire 1 9 addr [8] $end
$var wire 1 : addr [7] $end
$var wire 1 ; addr [6] $end
$var wire 1 < addr [5] $end
$var wire 1 = addr [4] $end
$var wire 1 > addr [3] $end
$var wire 1 ? addr [2] $end
$var wire 1 @ addr [1] $end
$var wire 1 A addr [0] $end
$var wire 1 B read1 [31] $end
$var wire 1 C read1 [30] $end
$var wire 1 D read1 [29] $end
$var wire 1 E read1 [28] $end
$var wire 1 F read1 [27] $end
$var wire 1 G read1 [26] $end
$var wire 1 H read1 [25] $end
$var wire 1 I read1 [24] $end
$var wire 1 J read1 [23] $end
$var wire 1 K read1 [22] $end
$var wire 1 L read1 [21] $end
$var wire 1 M read1 [20] $end
$var wire 1 N read1 [19] $end
$var wire 1 O read1 [18] $end
$var wire 1 P read1 [17] $end
$var wire 1 Q read1 [16] $end
$var wire 1 R read1 [15] $end
$var wire 1 S read1 [14] $end
$var wire 1 T read1 [13] $end
$var wire 1 U read1 [12] $end
$var wire 1 V read1 [11] $end
$var wire 1 W read1 [10] $end
$var wire 1 X read1 [9] $end
$var wire 1 Y read1 [8] $end
$var wire 1 Z read1 [7] $end
$var wire 1 [ read1 [6] $end
$var wire 1 \ read1 [5] $end
$var wire 1 ] read1 [4] $end
$var wire 1 ^ read1 [3] $end
$var wire 1 _ read1 [2] $end
$var wire 1 ` read1 [1] $end
$var wire 1 a read1 [0] $end
$var wire 1 b read2 [31] $end
$var wire 1 c read2 [30] $end
$var wire 1 d read2 [29] $end
$var wire 1 e read2 [28] $end
$var wire 1 f read2 [27] $end
$var wire 1 g read2 [26] $end
$var wire 1 h read2 [25] $end
$var wire 1 i read2 [24] $end
$var wire 1 j read2 [23] $end
$var wire 1 k read2 [22] $end
$var wire 1 l read2 [21] $end
$var wire 1 m read2 [20] $end
$var wire 1 n read2 [19] $end
$var wire 1 o read2 [18] $end
$var wire 1 p read2 [17] $end
$var wire 1 q read2 [16] $end
$var wire 1 r read2 [15] $end
$var wire 1 s read2 [14] $end
$var wire 1 t read2 [13] $end
$var wire 1 u read2 [12] $end
$var wire 1 v read2 [11] $end
$var wire 1 w read2 [10] $end
$var wire 1 x read2 [9] $end
$var wire 1 y read2 [8] $end
$var wire 1 z read2 [7] $end
$var wire 1 { read2 [6] $end
$var wire 1 | read2 [5] $end
$var wire 1 } read2 [4] $end
$var wire 1 ~ read2 [3] $end
$var wire 1 !! read2 [2] $end
$var wire 1 "! read2 [1] $end
$var wire 1 #! read2 [0] $end
$var wire 1 $! result [31] $end
$var wire 1 %! result [30] $end
$var wire 1 &! result [29] $end
$var wire 1 '! result [28] $end
$var wire 1 (! result [27] $end
$var wire 1 )! result [26] $end
$var wire 1 *! result [25] $end
$var wire 1 +! result [24] $end
$var wire 1 ,! result [23] $end
$var wire 1 -! result [22] $end
$var wire 1 .! result [21] $end
$var wire 1 /! result [20] $end
$var wire 1 0! result [19] $end
$var wire 1 1! result [18] $end
$var wire 1 2! result [17] $end
$var wire 1 3! result [16] $end
$var wire 1 4! result [15] $end
$var wire 1 5! result [14] $end
$var wire 1 6! result [13] $end
$var wire 1 7! result [12] $end
$var wire 1 8! result [11] $end
$var wire 1 9! result [10] $end
$var wire 1 :! result [9] $end
$var wire 1 ;! result [8] $end
$var wire 1 <! result [7] $end
$var wire 1 =! result [6] $end
$var wire 1 >! result [5] $end
$var wire 1 ?! result [4] $end
$var wire 1 @! result [3] $end
$var wire 1 A! result [2] $end
$var wire 1 B! result [1] $end
$var wire 1 C! result [0] $end
$var wire 1 D! sampler $end
$scope module i1 $end
$var wire 1 E! gnd $end
$var wire 1 F! vcc $end
$var wire 1 G! unknown $end
$var tri1 1 H! devclrn $end
$var tri1 1 I! devpor $end
$var tri1 1 J! devoe $end
$var wire 1 K! addr[0]~output_o $end
$var wire 1 L! addr[1]~output_o $end
$var wire 1 M! addr[2]~output_o $end
$var wire 1 N! addr[3]~output_o $end
$var wire 1 O! addr[4]~output_o $end
$var wire 1 P! addr[5]~output_o $end
$var wire 1 Q! addr[6]~output_o $end
$var wire 1 R! addr[7]~output_o $end
$var wire 1 S! addr[8]~output_o $end
$var wire 1 T! addr[9]~output_o $end
$var wire 1 U! addr[10]~output_o $end
$var wire 1 V! addr[11]~output_o $end
$var wire 1 W! addr[12]~output_o $end
$var wire 1 X! addr[13]~output_o $end
$var wire 1 Y! addr[14]~output_o $end
$var wire 1 Z! addr[15]~output_o $end
$var wire 1 [! addr[16]~output_o $end
$var wire 1 \! addr[17]~output_o $end
$var wire 1 ]! addr[18]~output_o $end
$var wire 1 ^! addr[19]~output_o $end
$var wire 1 _! addr[20]~output_o $end
$var wire 1 `! addr[21]~output_o $end
$var wire 1 a! addr[22]~output_o $end
$var wire 1 b! addr[23]~output_o $end
$var wire 1 c! addr[24]~output_o $end
$var wire 1 d! addr[25]~output_o $end
$var wire 1 e! addr[26]~output_o $end
$var wire 1 f! addr[27]~output_o $end
$var wire 1 g! addr[28]~output_o $end
$var wire 1 h! addr[29]~output_o $end
$var wire 1 i! addr[30]~output_o $end
$var wire 1 j! addr[31]~output_o $end
$var wire 1 k! result[0]~output_o $end
$var wire 1 l! result[1]~output_o $end
$var wire 1 m! result[2]~output_o $end
$var wire 1 n! result[3]~output_o $end
$var wire 1 o! result[4]~output_o $end
$var wire 1 p! result[5]~output_o $end
$var wire 1 q! result[6]~output_o $end
$var wire 1 r! result[7]~output_o $end
$var wire 1 s! result[8]~output_o $end
$var wire 1 t! result[9]~output_o $end
$var wire 1 u! result[10]~output_o $end
$var wire 1 v! result[11]~output_o $end
$var wire 1 w! result[12]~output_o $end
$var wire 1 x! result[13]~output_o $end
$var wire 1 y! result[14]~output_o $end
$var wire 1 z! result[15]~output_o $end
$var wire 1 {! result[16]~output_o $end
$var wire 1 |! result[17]~output_o $end
$var wire 1 }! result[18]~output_o $end
$var wire 1 ~! result[19]~output_o $end
$var wire 1 !" result[20]~output_o $end
$var wire 1 "" result[21]~output_o $end
$var wire 1 #" result[22]~output_o $end
$var wire 1 $" result[23]~output_o $end
$var wire 1 %" result[24]~output_o $end
$var wire 1 &" result[25]~output_o $end
$var wire 1 '" result[26]~output_o $end
$var wire 1 (" result[27]~output_o $end
$var wire 1 )" result[28]~output_o $end
$var wire 1 *" result[29]~output_o $end
$var wire 1 +" result[30]~output_o $end
$var wire 1 ," result[31]~output_o $end
$var wire 1 -" read1[0]~output_o $end
$var wire 1 ." read1[1]~output_o $end
$var wire 1 /" read1[2]~output_o $end
$var wire 1 0" read1[3]~output_o $end
$var wire 1 1" read1[4]~output_o $end
$var wire 1 2" read1[5]~output_o $end
$var wire 1 3" read1[6]~output_o $end
$var wire 1 4" read1[7]~output_o $end
$var wire 1 5" read1[8]~output_o $end
$var wire 1 6" read1[9]~output_o $end
$var wire 1 7" read1[10]~output_o $end
$var wire 1 8" read1[11]~output_o $end
$var wire 1 9" read1[12]~output_o $end
$var wire 1 :" read1[13]~output_o $end
$var wire 1 ;" read1[14]~output_o $end
$var wire 1 <" read1[15]~output_o $end
$var wire 1 =" read1[16]~output_o $end
$var wire 1 >" read1[17]~output_o $end
$var wire 1 ?" read1[18]~output_o $end
$var wire 1 @" read1[19]~output_o $end
$var wire 1 A" read1[20]~output_o $end
$var wire 1 B" read1[21]~output_o $end
$var wire 1 C" read1[22]~output_o $end
$var wire 1 D" read1[23]~output_o $end
$var wire 1 E" read1[24]~output_o $end
$var wire 1 F" read1[25]~output_o $end
$var wire 1 G" read1[26]~output_o $end
$var wire 1 H" read1[27]~output_o $end
$var wire 1 I" read1[28]~output_o $end
$var wire 1 J" read1[29]~output_o $end
$var wire 1 K" read1[30]~output_o $end
$var wire 1 L" read1[31]~output_o $end
$var wire 1 M" read2[0]~output_o $end
$var wire 1 N" read2[1]~output_o $end
$var wire 1 O" read2[2]~output_o $end
$var wire 1 P" read2[3]~output_o $end
$var wire 1 Q" read2[4]~output_o $end
$var wire 1 R" read2[5]~output_o $end
$var wire 1 S" read2[6]~output_o $end
$var wire 1 T" read2[7]~output_o $end
$var wire 1 U" read2[8]~output_o $end
$var wire 1 V" read2[9]~output_o $end
$var wire 1 W" read2[10]~output_o $end
$var wire 1 X" read2[11]~output_o $end
$var wire 1 Y" read2[12]~output_o $end
$var wire 1 Z" read2[13]~output_o $end
$var wire 1 [" read2[14]~output_o $end
$var wire 1 \" read2[15]~output_o $end
$var wire 1 ]" read2[16]~output_o $end
$var wire 1 ^" read2[17]~output_o $end
$var wire 1 _" read2[18]~output_o $end
$var wire 1 `" read2[19]~output_o $end
$var wire 1 a" read2[20]~output_o $end
$var wire 1 b" read2[21]~output_o $end
$var wire 1 c" read2[22]~output_o $end
$var wire 1 d" read2[23]~output_o $end
$var wire 1 e" read2[24]~output_o $end
$var wire 1 f" read2[25]~output_o $end
$var wire 1 g" read2[26]~output_o $end
$var wire 1 h" read2[27]~output_o $end
$var wire 1 i" read2[28]~output_o $end
$var wire 1 j" read2[29]~output_o $end
$var wire 1 k" read2[30]~output_o $end
$var wire 1 l" read2[31]~output_o $end
$var wire 1 m" clock~input_o $end
$var wire 1 n" Prog_Count|next_signal[0]~0_combout $end
$var wire 1 o" Prog_Count|Add0~0_combout $end
$var wire 1 p" Prog_Count|Add0~1 $end
$var wire 1 q" Prog_Count|Add0~2_combout $end
$var wire 1 r" Prog_Count|Add0~3 $end
$var wire 1 s" Prog_Count|Add0~4_combout $end
$var wire 1 t" Prog_Count|Add0~5 $end
$var wire 1 u" Prog_Count|Add0~6_combout $end
$var wire 1 v" Prog_Count|Add0~7 $end
$var wire 1 w" Prog_Count|Add0~8_combout $end
$var wire 1 x" Prog_Count|Add0~9 $end
$var wire 1 y" Prog_Count|Add0~10_combout $end
$var wire 1 z" Prog_Count|Add0~11 $end
$var wire 1 {" Prog_Count|Add0~12_combout $end
$var wire 1 |" Prog_Count|Add0~13 $end
$var wire 1 }" Prog_Count|Add0~14_combout $end
$var wire 1 ~" Prog_Count|Add0~15 $end
$var wire 1 !# Prog_Count|Add0~16_combout $end
$var wire 1 "# Prog_Count|Add0~17 $end
$var wire 1 ## Prog_Count|Add0~18_combout $end
$var wire 1 $# Prog_Count|Add0~19 $end
$var wire 1 %# Prog_Count|Add0~20_combout $end
$var wire 1 &# Prog_Count|next_signal[11]~1_combout $end
$var wire 1 '# Prog_Count|Add0~21 $end
$var wire 1 (# Prog_Count|Add0~22_combout $end
$var wire 1 )# Prog_Count|next_signal[12]~2_combout $end
$var wire 1 *# Prog_Count|Add0~23 $end
$var wire 1 +# Prog_Count|Add0~24_combout $end
$var wire 1 ,# Prog_Count|Add0~25 $end
$var wire 1 -# Prog_Count|Add0~26_combout $end
$var wire 1 .# Prog_Count|Add0~27 $end
$var wire 1 /# Prog_Count|Add0~28_combout $end
$var wire 1 0# Prog_Count|Add0~29 $end
$var wire 1 1# Prog_Count|Add0~30_combout $end
$var wire 1 2# Prog_Count|Add0~31 $end
$var wire 1 3# Prog_Count|Add0~32_combout $end
$var wire 1 4# Prog_Count|next_signal[17]~3_combout $end
$var wire 1 5# Prog_Count|Add0~33 $end
$var wire 1 6# Prog_Count|Add0~34_combout $end
$var wire 1 7# Prog_Count|Add0~35 $end
$var wire 1 8# Prog_Count|Add0~36_combout $end
$var wire 1 9# Prog_Count|Add0~37 $end
$var wire 1 :# Prog_Count|Add0~38_combout $end
$var wire 1 ;# Prog_Count|Add0~39 $end
$var wire 1 <# Prog_Count|Add0~40_combout $end
$var wire 1 =# Prog_Count|next_signal[21]~4_combout $end
$var wire 1 ># Prog_Count|Add0~41 $end
$var wire 1 ?# Prog_Count|Add0~42_combout $end
$var wire 1 @# Prog_Count|Add0~43 $end
$var wire 1 A# Prog_Count|Add0~44_combout $end
$var wire 1 B# Prog_Count|Add0~45 $end
$var wire 1 C# Prog_Count|Add0~46_combout $end
$var wire 1 D# Prog_Count|Add0~47 $end
$var wire 1 E# Prog_Count|Add0~48_combout $end
$var wire 1 F# Prog_Count|Add0~49 $end
$var wire 1 G# Prog_Count|Add0~50_combout $end
$var wire 1 H# Prog_Count|Add0~51 $end
$var wire 1 I# Prog_Count|Add0~52_combout $end
$var wire 1 J# Prog_Count|Add0~53 $end
$var wire 1 K# Prog_Count|Add0~54_combout $end
$var wire 1 L# Prog_Count|Add0~55 $end
$var wire 1 M# Prog_Count|Add0~56_combout $end
$var wire 1 N# Prog_Count|Add0~57 $end
$var wire 1 O# Prog_Count|Add0~58_combout $end
$var wire 1 P# Prog_Count|Add0~59 $end
$var wire 1 Q# Prog_Count|Add0~60_combout $end
$var wire 1 R# ALUIN|res_sig[0]~27_combout $end
$var wire 1 S# ALUIN|res_sig[0]~49_combout $end
$var wire 1 T# IM|Mux12~0_combout $end
$var wire 1 U# IM|Mux6~0_combout $end
$var wire 1 V# REG|Mux32~0_combout $end
$var wire 1 W# IM|Mux4~0_combout $end
$var wire 1 X# IM|Mux4~1_combout $end
$var wire 1 Y# IM|Mux5~0_combout $end
$var wire 1 Z# REG|Mux0~0_combout $end
$var wire 1 [# ALUIN|Add0~0_combout $end
$var wire 1 \# CONTROLLER|Mux5~0_combout $end
$var wire 1 ]# CONTROLLER|Mux5~1_combout $end
$var wire 1 ^# IM|Mux16~0_combout $end
$var wire 1 _# IM|Mux16~1_combout $end
$var wire 1 `# IM|Mux15~0_combout $end
$var wire 1 a# ALU_CONTRL|process_0~11_combout $end
$var wire 1 b# ALU_CONTRL|process_0~12_combout $end
$var wire 1 c# ALU_CONTRL|Equal0~0_combout $end
$var wire 1 d# ALU_CONTRL|Equal6~3_combout $end
$var wire 1 e# ALU_CONTRL|Equal6~6_combout $end
$var wire 1 f# ALU_CONTRL|process_0~3_combout $end
$var wire 1 g# ALU_CONTRL|process_0~10_combout $end
$var wire 1 h# ALU_CONTRL|Operation~0_combout $end
$var wire 1 i# ALUIN|Equal0~0_combout $end
$var wire 1 j# ALUIN|Add1~0_combout $end
$var wire 1 k# ALUIN|res_sig[0]~3_combout $end
$var wire 1 l# ALUIN|res_sig[0]~47_combout $end
$var wire 1 m# ALUIN|res_sig[0]~37_combout $end
$var wire 1 n# REG|Mux30~0_combout $end
$var wire 1 o# REG|Mux62~0_combout $end
$var wire 1 p# ALUIN|Add1~1 $end
$var wire 1 q# ALUIN|Add1~2_combout $end
$var wire 1 r# ALUIN|Add0~1 $end
$var wire 1 s# ALUIN|Add0~2_combout $end
$var wire 1 t# ALU_CONTRL|Operation~1_combout $end
$var wire 1 u# ALU_CONTRL|Mux3~0_combout $end
$var wire 1 v# ALU_CONTRL|process_0~9_combout $end
$var wire 1 w# ALU_CONTRL|Operation~2_combout $end
$var wire 1 x# ALUIN|Equal4~9_combout $end
$var wire 1 y# ALUIN|res_sig[3]~38_combout $end
$var wire 1 z# ALUIN|res_sig[3]~39_combout $end
$var wire 1 {# ALUIN|res_sig[1]~40_combout $end
$var wire 1 |# ALUIN|res_sig[3]~41_combout $end
$var wire 1 }# ALUIN|res_sig[1]~42_combout $end
$var wire 1 ~# REG|Mux29~0_combout $end
$var wire 1 !$ REG|Mux61~0_combout $end
$var wire 1 "$ ALUIN|Add1~3 $end
$var wire 1 #$ ALUIN|Add1~4_combout $end
$var wire 1 $$ ALUIN|Add0~3 $end
$var wire 1 %$ ALUIN|Add0~4_combout $end
$var wire 1 &$ ALUIN|res_sig[2]~43_combout $end
$var wire 1 '$ ALUIN|res_sig[2]~44_combout $end
$var wire 1 ($ ALUIN|Equal4~3_combout $end
$var wire 1 )$ ALUIN|Equal4~10_combout $end
$var wire 1 *$ ALUIN|res_sig[3]~50_combout $end
$var wire 1 +$ ALUIN|res_sig[3]~51_combout $end
$var wire 1 ,$ ALUIN|Add1~5 $end
$var wire 1 -$ ALUIN|Add1~6_combout $end
$var wire 1 .$ ALUIN|Add0~5 $end
$var wire 1 /$ ALUIN|Add0~6_combout $end
$var wire 1 0$ ALUIN|res_sig[3]~45_combout $end
$var wire 1 1$ ALUIN|res_sig[3]~46_combout $end
$var wire 1 2$ ALUIN|Add1~7 $end
$var wire 1 3$ ALUIN|Add1~8_combout $end
$var wire 1 4$ ALUIN|res_sig[4]~15_combout $end
$var wire 1 5$ ALUIN|res_sig[4]~48_combout $end
$var wire 1 6$ Prog_Count|next_signal [31] $end
$var wire 1 7$ Prog_Count|next_signal [30] $end
$var wire 1 8$ Prog_Count|next_signal [29] $end
$var wire 1 9$ Prog_Count|next_signal [28] $end
$var wire 1 :$ Prog_Count|next_signal [27] $end
$var wire 1 ;$ Prog_Count|next_signal [26] $end
$var wire 1 <$ Prog_Count|next_signal [25] $end
$var wire 1 =$ Prog_Count|next_signal [24] $end
$var wire 1 >$ Prog_Count|next_signal [23] $end
$var wire 1 ?$ Prog_Count|next_signal [22] $end
$var wire 1 @$ Prog_Count|next_signal [21] $end
$var wire 1 A$ Prog_Count|next_signal [20] $end
$var wire 1 B$ Prog_Count|next_signal [19] $end
$var wire 1 C$ Prog_Count|next_signal [18] $end
$var wire 1 D$ Prog_Count|next_signal [17] $end
$var wire 1 E$ Prog_Count|next_signal [16] $end
$var wire 1 F$ Prog_Count|next_signal [15] $end
$var wire 1 G$ Prog_Count|next_signal [14] $end
$var wire 1 H$ Prog_Count|next_signal [13] $end
$var wire 1 I$ Prog_Count|next_signal [12] $end
$var wire 1 J$ Prog_Count|next_signal [11] $end
$var wire 1 K$ Prog_Count|next_signal [10] $end
$var wire 1 L$ Prog_Count|next_signal [9] $end
$var wire 1 M$ Prog_Count|next_signal [8] $end
$var wire 1 N$ Prog_Count|next_signal [7] $end
$var wire 1 O$ Prog_Count|next_signal [6] $end
$var wire 1 P$ Prog_Count|next_signal [5] $end
$var wire 1 Q$ Prog_Count|next_signal [4] $end
$var wire 1 R$ Prog_Count|next_signal [3] $end
$var wire 1 S$ Prog_Count|next_signal [2] $end
$var wire 1 T$ Prog_Count|next_signal [1] $end
$var wire 1 U$ Prog_Count|next_signal [0] $end
$upscope $end
$upscope $end
$enddefinitions $end
#0
$dumpvars
0!
0A
0@
0?
0>
0=
0<
0;
0:
09
08
07
16
15
04
03
02
01
10
0/
0.
0-
1,
0+
0*
0)
0(
0'
0&
0%
0$
0#
0"
0a
0`
0_
0^
0]
0\
0[
0Z
0Y
0X
0W
0V
0U
0T
0S
0R
0Q
0P
0O
0N
0M
0L
0K
0J
0I
0H
0G
0F
0E
0D
0C
0B
1#!
1"!
0!!
0~
0}
0|
0{
0z
0y
0x
0w
0v
0u
0t
0s
0r
0q
0p
0o
0n
0m
0l
0k
0j
0i
0h
0g
0f
0e
0d
0c
0b
1C!
1B!
0A!
0@!
0?!
0>!
0=!
0<!
0;!
0:!
09!
08!
07!
06!
05!
04!
03!
02!
01!
00!
0/!
0.!
0-!
0,!
0+!
0*!
0)!
0(!
0'!
0&!
0%!
0$!
xD!
0E!
1F!
xG!
1H!
1I!
1J!
0K!
0L!
0M!
0N!
0O!
0P!
0Q!
0R!
0S!
0T!
0U!
1V!
1W!
0X!
0Y!
0Z!
0[!
1\!
0]!
0^!
0_!
1`!
0a!
0b!
0c!
0d!
0e!
0f!
0g!
0h!
0i!
0j!
1k!
1l!
0m!
0n!
0o!
0p!
0q!
0r!
0s!
0t!
0u!
0v!
0w!
0x!
0y!
0z!
0{!
0|!
0}!
0~!
0!"
0""
0#"
0$"
0%"
0&"
0'"
0("
0)"
0*"
0+"
0,"
0-"
0."
0/"
00"
01"
02"
03"
04"
05"
06"
07"
08"
09"
0:"
0;"
0<"
0="
0>"
0?"
0@"
0A"
0B"
0C"
0D"
0E"
0F"
0G"
0H"
0I"
0J"
0K"
0L"
1M"
1N"
0O"
0P"
0Q"
0R"
0S"
0T"
0U"
0V"
0W"
0X"
0Y"
0Z"
0["
0\"
0]"
0^"
0_"
0`"
0a"
0b"
0c"
0d"
0e"
0f"
0g"
0h"
0i"
0j"
0k"
0l"
0m"
1n"
0o"
0p"
0q"
1r"
0s"
0t"
0u"
1v"
0w"
0x"
0y"
1z"
0{"
0|"
0}"
1~"
0!#
0"#
0##
1$#
1%#
0&#
0'#
1(#
0)#
1*#
0+#
0,#
0-#
1.#
0/#
00#
01#
12#
13#
04#
05#
06#
17#
08#
09#
0:#
1;#
1<#
0=#
0>#
0?#
1@#
0A#
0B#
0C#
1D#
0E#
0F#
0G#
1H#
0I#
0J#
0K#
1L#
0M#
0N#
0O#
1P#
0Q#
0R#
0S#
1T#
0U#
1V#
0W#
0X#
0Y#
0Z#
1[#
0\#
0]#
0^#
0_#
0`#
1a#
1b#
1c#
0d#
0e#
0f#
0g#
1h#
0i#
1j#
0k#
0l#
1m#
1n#
0o#
0p#
0q#
0r#
1s#
0t#
0u#
1v#
0w#
0x#
0y#
1z#
1{#
0|#
1}#
1~#
1!$
1"$
1#$
1$$
0%$
0&$
0'$
0($
0)$
1*$
1+$
0,$
1-$
0.$
0/$
00$
01$
12$
13$
04$
05$
0U$
0T$
0S$
0R$
0Q$
0P$
0O$
0N$
0M$
0L$
0K$
0J$
0I$
0H$
0G$
0F$
0E$
0D$
0C$
0B$
0A$
0@$
0?$
0>$
0=$
0<$
0;$
0:$
09$
08$
07$
06$
$end
#5000
1!
1m"
0D!
#10000
0!
0m"
1D!
1U$
1o#
1k#
1U#
1R#
1o"
0n"
1K!
1A
0V#
0s#
1q#
1p#
0j#
0[#
0N"
0M"
0"!
0#!
1V#
0{#
0"$
0q#
0k#
0p#
1j#
1[#
1M"
1#!
0m#
1,$
0#$
1"$
1q#
1k#
0k!
0C!
0}#
1m#
02$
0-$
0,$
1#$
0l!
1k!
0B!
1C!
03$
12$
1-$
13$
#15000
1!
1m"
0D!
#20000
0!
0m"
1D!
0U$
1T$
0!$
0k#
1Y#
0R#
1n"
1`#
0T#
1S#
0K!
1L!
0A
1@
1%$
0#$
0n#
0S#
1!$
1O"
1!!
1Z#
1&$
1s#
0"$
0q#
0%$
1#$
1p#
0j#
1r#
0[#
1."
0O"
1-"
1`
0!!
1a
1{#
1,$
0#$
0&$
1q#
0$$
0s#
1'$
0m#
02$
0-$
0{#
1%$
1m!
0k!
1A!
0C!
1}#
0'$
03$
1&$
1l!
0m!
1B!
0A!
0}#
0l!
0B!
1'$
1m!
1A!
#25000
1!
1m"
0D!
#30000
0!
0m"
1D!
1U$
1\#
1R#
1p"
0o"
0n"
1K!
1A
1]#
1S#
1q"
1x#
1i#
1m#
1|#
1y#
1k!
1C!
10$
1{#
0'$
1}#
0m!
1l!
0A!
1B!
0}#
0l!
0B!
#35000
1!
1m"
0D!
#40000
0!
0m"
1D!
0U$
0T$
1S$
1d#
0a#
1^#
0\#
0Y#
1W#
0R#
0p"
1n"
0S#
0r"
0q"
0K!
0L!
1M!
0A
0@
1?
1e#
0b#
1_#
0]#
1n#
1X#
1r"
1q"
1s"
0Z#
0m#
1w#
1t#
0x#
0i#
1$$
1s#
0q#
0s"
0p#
1j#
0r#
1[#
0."
0-"
0k!
0`
0a
0C!
1Z#
0|#
0y#
0%$
1"$
1q#
0s#
1p#
0j#
1r#
0[#
1-"
1a
11$
1m#
00$
0&$
0{#
0,$
1#$
0"$
0q#
1s#
1n!
1k!
1@!
1C!
1'$
1}#
0m#
12$
1-$
1,$
0#$
1{#
1m!
1l!
0k!
1A!
1B!
0C!
01$
0'$
0}#
13$
02$
0-$
0n!
0m!
0l!
0@!
0A!
0B!
1}#
03$
1l!
1B!
#45000
1!
1m"
0D!
#50000
0!
0m"
1D!
1U$
0d#
1a#
0^#
1Y#
0W#
0U#
1R#
1o"
0n"
1K!
1A
0e#
1b#
0_#
0~#
0X#
0V#
0w#
0t#
1%$
1#$
1~#
0n#
1j#
0r#
1[#
1/"
0M"
1_
0#!
1&$
0%$
0#$
1q#
0/"
1."
0_
1`
1m#
0&$
1k!
1C!
1'$
1m!
1A!
0'$
0m!
0A!
#55000
1!
1m"
0D!
#60000
0!
0m"
1D!
0U$
1T$
0*$
1d#
0a#
1^#
1\#
0Y#
1W#
0R#
1n"
0b#
0K!
1L!
0A
1@
0+$
1]#
1n#
1w#
1t#
0Z#
1u#
1i#
0s#
0q#
0j#
0[#
0."
0-"
0`
0a
0z#
1y#
0{#
0m#
0k!
0C!
0}#
0l!
0B!
#65000
1!
1m"
0D!
#70000
0!
0m"
1D!
1U$
0d#
1a#
0^#
0W#
1R#
1p"
0o"
0n"
1K!
1A
0r"
0q"
1s"
#75000
1!
1m"
0D!
#80000
0!
0m"
1D!
0U$
0T$
0S$
1R$
1*$
1f#
0a#
1^#
0\#
0R#
0p"
1n"
1b#
0`#
1r"
1q"
1t"
0s"
0K!
0L!
0M!
1N!
0A
0@
0?
1>
0b#
1_#
0q"
0w#
0t#
0v#
0t"
1s"
1u"
1w#
1t#
1x#
0u#
0u"
0y#
0x#
1u#
1y#
#85000
1!
1m"
0D!
#90000
0!
0m"
1D!
1U$
0*$
0f#
1R#
1o"
0n"
1K!
1A
#95000
1!
1m"
0D!
#100000
0!
0m"
1D!
0U$
1T$
1f#
0R#
1n"
1($
0_#
0K!
1L!
0A
1@
#105000
1!
1m"
0D!
#110000
0!
0m"
1D!
1U$
0f#
1\#
1R#
1p"
0o"
0n"
1K!
1A
1q"
#115000
1!
1m"
0D!
#120000
0!
0m"
1D!
0U$
0T$
1S$
1f#
1d#
0\#
1W#
0R#
0p"
1n"
0($
1`#
1_#
0r"
0q"
0K!
0L!
1M!
0A
0@
1?
1r"
1q"
1v#
1t"
0s"
0t"
1s"
1u"
0u"
#125000
1!
1m"
0D!
#130000
0!
0m"
1D!
1U$
0f#
0d#
0W#
1R#
1o"
0n"
1K!
1A
#135000
1!
1m"
0D!
#140000
0!
0m"
1D!
0U$
1T$
1f#
1d#
1\#
1W#
0R#
1n"
1($
0_#
0K!
1L!
0A
1@
#145000
1!
1m"
0D!
#150000
0!
0m"
1D!
1U$
1*$
0f#
0d#
0W#
1R#
1p"
0o"
0n"
1K!
1A
0r"
0q"
1t"
0s"
1u"
#155000
1!
1m"
0D!
#160000
0!
0m"
1D!
0U$
0T$
0S$
0R$
1Q$
0\#
0R#
0p"
1n"
0($
0`#
1_#
1r"
1q"
0t"
1s"
0v"
0u"
0K!
0L!
0M!
0N!
1O!
0A
0@
0?
0>
1=
0q"
0v#
0s"
1v"
1u"
1w"
0w"
#165000
1!
1m"
0D!
#170000
0!
0m"
1D!
1U$
1d#
1U#
1o"
0n"
1K!
1A
1e#
#175000
1!
1m"
0D!
#180000
0!
0m"
1D!
0U$
1T$
0d#
1Y#
1n"
0e#
0_#
0K!
1L!
0A
1@
#185000
1!
1m"
0D!
#190000
0!
0m"
1D!
1U$
1d#
1\#
1p"
0o"
0n"
1K!
1A
1q"
#195000
1!
1m"
0D!
#200000
0!
0m"
1D!
0U$
0T$
1S$
0d#
0\#
0Y#
1W#
0p"
1n"
1e#
1`#
1_#
0r"
0q"
0K!
0L!
1M!
0A
0@
1?
0e#
1r"
1q"
1v#
1s"
0s"
#205000
1!
1m"
0D!
#210000
0!
0m"
1D!
1U$
1d#
1Y#
0W#
0U#
1o"
0n"
1K!
1A
1e#
#215000
1!
1m"
0D!
#220000
0!
0m"
1D!
0U$
1T$
0*$
0d#
1\#
0Y#
1W#
1n"
0e#
0_#
0K!
1L!
0A
1@
#225000
1!
1m"
0D!
#230000
0!
0m"
1D!
1U$
1d#
0W#
1p"
0o"
0n"
1K!
1A
0r"
0q"
1s"
#235000
1!
1m"
0D!
#240000
0!
0m"
1D!
0U$
0T$
0S$
1R$
1*$
1f#
0d#
0\#
0p"
1n"
0`#
1_#
1r"
1q"
1t"
0s"
0K!
0L!
0M!
1N!
0A
0@
0?
1>
1+$
1g#
0q"
0v#
0t"
1s"
0v"
0u"
0w#
0h#
1v"
1u"
1w"
1x#
0w"
1|#
#245000
1!
1m"
0D!
#250000
0!
0m"
1D!
1U$
0*$
0f#
1d#
1a#
1o"
0n"
1K!
1A
0+$
0g#
1b#
1w#
1h#
0|#
0x#
#255000
1!
1m"
0D!
#260000
0!
0m"
1D!
0U$
1T$
1f#
0d#
0a#
1n"
1($
0_#
0K!
1L!
0A
1@
0b#
0t#
1t#
1x#
0u#
0x#
1u#
0y#
1y#
#265000
1!
1m"
0D!
#270000
0!
0m"
1D!
1U$
1)$
0f#
1d#
1a#
1\#
1p"
0o"
0n"
1K!
1A
1b#
1q"
0t#
1x#
0u#
0y#
#275000
1!
1m"
0D!
#280000
0!
0m"
1D!
0U$
0T$
1S$
0)$
1f#
0d#
0a#
0\#
1W#
0p"
1n"
0($
1`#
1_#
0r"
0q"
0K!
0L!
1M!
0A
0@
1?
0b#
1r"
1q"
1v#
1t#
1t"
0s"
0t"
1s"
0x#
1u#
0v"
0u"
1v"
1u"
1y#
1w"
0w"
#285000
1!
1m"
0D!
